user_id,first_name,last_name,zipcode,price_paid,email,address_1,address_2,city,state,country,phone,payment_method,discount_code
1,Simon,Cateau,87000,45.00,simon.cateau@outlook.com,4 quai,Louis Goujaud,b,b,tfght,5000,bh,bh
2,Simon,Cateau,87000,49.00,simon.cateau@outlook.com,"4, quai",Louis Goujaud,Limoges,NOA,France,05550555,Visa,youtube1
3,Mary,Watson,87000,49.00,simon.cateau@outlook.com,"4, quai",Louis Goujaud,Limoges,NOA,France,05550555,Visa,youtube1
